Model Building - Piecemeal
…
Process 2: the number of flights leaving NYC each day

Count the number of flights per day and visualise them with ggplot2:

daily <- flights %>% 
        mutate(date = make_date(year, month, day)) %>% 
        group_by(date) %>% 
        summarise(n = n())
daily

## # A tibble: 365 x 2
##    date           n
##    <date>     <int>
##  1 2013-01-01   842
##  2 2013-01-02   943
##  3 2013-01-03   914
##  4 2013-01-04   915
##  5 2013-01-05   720
##  6 2013-01-06   832
##  7 2013-01-07   933
##  8 2013-01-08   899
##  9 2013-01-09   902
## 10 2013-01-10   932
## # ... with 355 more rows
…
