Text Analysis - Moby Dick - Piecemeal
…
    2 min read

    Text Analysis  - Moby Dick

    2018/02/20

Moby Dick text analysis

1. Word frequency:

Victory

First download the book from Project Gutenberg

## # A tibble: 23,571 x 3
##    text               linenumber chapter
##    <chr>                   <int>   <int>
##  1 MOBY DICK;                  1       0
##  2 OR THE WHALE                2       0
##  3 ""                          3       0
##  4 by Herman Melville          4       0
##  5 ""                          5       0
##  6 ""                          6       0
##  7 ""                          7       0
##  8 ""                          8       0
##  9 "  CHAPTER 1"               9       0
## 10 ""                         10       0
## # ... with 23,561 more rows
…
