Text Analysis - Moby Dick | piecemeal
…
    Text Analysis - Moby Dick

      Feb 20, 2018

    2 min read

      Moby Dick is Herman Melville’s epic novel of 1851. It tells the story of Captain Ahab’s pursuit of a great white sperm whale that has bitten off his leg. He risks his own life and that of his crew on the whaling ship Pequod. He is gripped by a narcissistic rage in his single-minded voyage of revenge. The tale is narrated by Ishmael, taking part in his first whaling expedition, and we encounter a multi-national crew including Queequeg, Starbuck, Stubb, Tashtego, Flask and Daggoo. The story is interspersed with detailed chapters on whales, almost in the form of a mini encyclopedia.

Below is an analysis of the text:

First, download the book from Project Gutenberg and display the output:

## # A tibble: 23,571 x 3
##    text               linenumber chapter
##    <chr>                   <int>   <int>
##  1 MOBY DICK;                  1       0
##  2 OR THE WHALE                2       0
##  3 ""                          3       0
##  4 by Herman Melville          4       0
##  5 ""                          5       0
##  6 ""                          6       0
##  7 ""                          7       0
##  8 ""                          8       0
##  9 "  CHAPTER 1"               9       0
## 10 ""                         10       0
## # ... with 23,561 more rows
…
