Text Analysis - Piecemeal
…
    2 min read

    Text Analysis

    2018/04/22

Moby Dick text analysis

Word frequency:

First download the book from Project Gutenberg

## # A tibble: 23,571 x 4
##    gutenberg_id text               linenumber chapter
##           <int> <chr>                   <int>   <int>
##  1         2489 MOBY DICK;                  1       0
##  2         2489 OR THE WHALE                2       0
##  3         2489 ""                          3       0
##  4         2489 by Herman Melville          4       0
##  5         2489 ""                          5       0
##  6         2489 ""                          6       0
##  7         2489 ""                          7       0
##  8         2489 ""                          8       0
##  9         2489 "  CHAPTER 1"               9       0
## 10         2489 ""                         10       0
## # ... with 23,561 more rows

Then, tidy the text

## # A tibble: 216,060 x 4
##    gutenberg_id linenumber chapter word    
##           <int>      <int>   <int> <chr>   
##  1         2489          1       0 moby    
##  2         2489          1       0 dick    
##  3         2489          2       0 or      
##  4         2489          2       0 the     
##  5         2489          2       0 whale   
##  6         2489          4       0 by      
##  7         2489          4       0 herman  
##  8         2489          4       0 melville
##  9         2489          9       0 chapter 
## 10         2489          9       0 1       
## # ... with 216,050 more rows
…
